C:\Programming2022\TestFinalProject\src\main\java\com\testFinalProject\dao\impl\UserDao.java
C:\Programming2022\TestFinalProject\src\main\java\com\testFinalProject\dto\TaskInformation.java
C:\Programming2022\TestFinalProject\src\main\java\com\testFinalProject\command\impl\task\GetCountTasksForUserByIdCommand.java
C:\Programming2022\TestFinalProject\src\main\java\com\testFinalProject\entity\TaskHistory.java
C:\Programming2022\TestFinalProject\src\main\java\com\testFinalProject\dao\IUserDao.java
C:\Programming2022\TestFinalProject\src\main\java\com\testFinalProject\command\impl\user\UpdateUserCommand.java
C:\Programming2022\TestFinalProject\src\main\java\com\testFinalProject\Application.java
C:\Programming2022\TestFinalProject\src\main\java\com\testFinalProject\command\impl\statusTask\GetAllTaskStatusesCommand.java
C:\Programming2022\TestFinalProject\src\main\java\com\testFinalProject\utils\UtilData.java
C:\Programming2022\TestFinalProject\src\main\java\com\testFinalProject\service\IUserService.java
C:\Programming2022\TestFinalProject\src\main\java\com\testFinalProject\utils\UtilConstants.java
C:\Programming2022\TestFinalProject\src\main\java\com\testFinalProject\command\impl\task\SetTaskStatusDoneCommand.java
C:\Programming2022\TestFinalProject\src\main\java\com\testFinalProject\command\impl\user\ValidateUserPasswordCommand.java
C:\Programming2022\TestFinalProject\src\main\java\com\testFinalProject\command\impl\user\GetAllUsersCommand.java
C:\Programming2022\TestFinalProject\src\main\java\com\testFinalProject\command\ICommand.java
C:\Programming2022\TestFinalProject\src\main\java\com\testFinalProject\dao\factory\MySqlDaoFactory.java
C:\Programming2022\TestFinalProject\src\main\java\com\testFinalProject\entity\Speciality.java
C:\Programming2022\TestFinalProject\src\main\java\com\testFinalProject\scheduler\ApplicationStartUp.java
C:\Programming2022\TestFinalProject\src\main\java\com\testFinalProject\command\impl\task\GetTaskByIdCommand.java
C:\Programming2022\TestFinalProject\src\main\java\com\testFinalProject\controller\Filter.java
C:\Programming2022\TestFinalProject\src\main\java\com\testFinalProject\entity\StatusTask.java
C:\Programming2022\TestFinalProject\src\main\java\com\testFinalProject\command\impl\task\SaveTaskCommand.java
C:\Programming2022\TestFinalProject\src\main\java\com\testFinalProject\command\impl\task\UpdateTaskCommand.java
C:\Programming2022\TestFinalProject\src\main\java\com\testFinalProject\command\impl\speciality\GetAllSpecialtiesCommand.java
C:\Programming2022\TestFinalProject\src\main\java\com\testFinalProject\command\impl\task\GetTasksForUserByIdCommand.java
C:\Programming2022\TestFinalProject\src\main\java\com\testFinalProject\command\impl\user\CreateNewUserCommand.java
C:\Programming2022\TestFinalProject\src\main\java\com\testFinalProject\controller\FrontControllerServlet.java
C:\Programming2022\TestFinalProject\src\main\java\com\testFinalProject\entity\builder\TaskBuilder.java
C:\Programming2022\TestFinalProject\src\main\java\com\testFinalProject\service\impl\TaskService.java
C:\Programming2022\TestFinalProject\src\main\java\com\testFinalProject\command\impl\task\GetTasksByStatusCommand.java
C:\Programming2022\TestFinalProject\src\main\java\com\testFinalProject\entity\Task.java
C:\Programming2022\TestFinalProject\src\main\java\com\testFinalProject\entity\RoleUser.java
C:\Programming2022\TestFinalProject\src\main\java\com\testFinalProject\command\impl\task\GetDoneTasksForPeriodCommand.java
C:\Programming2022\TestFinalProject\src\main\java\com\testFinalProject\command\impl\task\GetHistoryTaskByIdCommand.java
C:\Programming2022\TestFinalProject\src\main\java\com\testFinalProject\dbConnector\ConnectionManager.java
C:\Programming2022\TestFinalProject\src\main\java\com\testFinalProject\entity\builder\UserBuilder.java
C:\Programming2022\TestFinalProject\src\main\java\com\testFinalProject\service\impl\UserService.java
C:\Programming2022\TestFinalProject\src\main\java\com\testFinalProject\entity\ProgressTask.java
C:\Programming2022\TestFinalProject\src\main\java\com\testFinalProject\command\impl\task\GetAllTasksCommand.java
C:\Programming2022\TestFinalProject\src\main\java\com\testFinalProject\command\impl\user\GetUsersBySpecialityCommand.java
C:\Programming2022\TestFinalProject\src\main\java\com\testFinalProject\command\impl\user\GetUserByIdCommand.java
C:\Programming2022\TestFinalProject\src\main\java\com\testFinalProject\command\impl\task\GetCountOfTasksByStatusCommand.java
C:\Programming2022\TestFinalProject\src\main\java\com\testFinalProject\dao\impl\TaskDao.java
C:\Programming2022\TestFinalProject\src\main\java\com\testFinalProject\entity\User.java
C:\Programming2022\TestFinalProject\src\main\java\com\testFinalProject\command\impl\user\UpdatePasswordCommand.java
C:\Programming2022\TestFinalProject\src\main\java\com\testFinalProject\command\impl\task\GetTaskInfoByIdCommand.java
C:\Programming2022\TestFinalProject\src\main\java\com\testFinalProject\command\impl\task\GetDoneTasksOfUserForPeriodCommand.java
C:\Programming2022\TestFinalProject\src\main\java\com\testFinalProject\command\impl\task\SaveNewStatusTaskByHistoryCommand.java
C:\Programming2022\TestFinalProject\src\main\java\com\testFinalProject\dao\factory\DaoFactory.java
C:\Programming2022\TestFinalProject\src\main\java\com\testFinalProject\dao\ITaskDao.java
C:\Programming2022\TestFinalProject\src\main\java\com\testFinalProject\service\ITaskService.java
